Chapter 13 Prueba de una muestra | BioEstadistica
…
Un dueño de una impresa dice que su insiste que la cantidad de días promedio de enfermedades de sus empleados es menor que el promedio nacional de 10. Los datos de 40 empleados sigue. Determina si hay evidencia para creer el comentario del dueño de esta impresa.

Code

dias_E=tribble(
  ~dias_e,
  0,6,12,3,3,5,4,1,
  3,9,6,0,7,6,3,4,
  7,4,7,1,0,8,12,3,
  2,5,10,5,15,3,2,5,
  3,11,8,2,2,4,1,9
)
dias_E

## # A tibble: 40 × 1
##    dias_e
##     <dbl>
##  1      0
##  2      6
##  3     12
##  4      3
##  5      3
##  6      5
##  7      4
##  8      1
##  9      3
## 10      9
## # ℹ 30 more rows
